11 some tidyverse tricks | Data science for the liberal arts
…
11.2 From section 02 - Transform

Here’s Gapminder data (summarized in the Hans Rosling video). We’ll play with it a little.

gapminder

## # A tibble: 1,704 x 6
##    country     continent  year lifeExp      pop gdpPercap
##    <fct>       <fct>     <int>   <dbl>    <int>     <dbl>
##  1 Afghanistan Asia       1952    28.8  8425333      779.
##  2 Afghanistan Asia       1957    30.3  9240934      821.
##  3 Afghanistan Asia       1962    32.0 10267083      853.
##  4 Afghanistan Asia       1967    34.0 11537966      836.
##  5 Afghanistan Asia       1972    36.1 13079460      740.
##  6 Afghanistan Asia       1977    38.4 14880372      786.
##  7 Afghanistan Asia       1982    39.9 12881816      978.
##  8 Afghanistan Asia       1987    40.8 13867957      852.
##  9 Afghanistan Asia       1992    41.7 16317921      649.
## 10 Afghanistan Asia       1997    41.8 22227415      635.
## # ... with 1,694 more rows
…
# gapminder 

11.8 Joins

You often need to combine different datasets.

One way is to add new rows (observations) for your current set of variables.

Another is to add new columns (measures or variables) for your current set of observations.

Consider the following…

country_codes

## # A tibble: 187 x 3
##    country     iso_alpha iso_num
##    <chr>       <chr>       <int>
##  1 Afghanistan AFG             4
##  2 Albania     ALB             8
##  3 Algeria     DZA            12
##  4 Angola      AGO            24
##  5 Argentina   ARG            32
##  6 Armenia     ARM            51
##  7 Aruba       ABW           533
##  8 Australia   AUS            36
##  9 Austria     AUT            40
## 10 Azerbaijan  AZE            31
## # ... with 177 more rows

We can combine it with the gapminder data using a version of join, for example, …

gapminder %>% left_join(country_codes)

## Joining, by = "country"

## Warning: Column `country` joining factor and character vector, coercing
## into character vector

## # A tibble: 1,704 x 8
##    country     continent  year lifeExp      pop gdpPercap iso_alpha iso_num
##    <chr>       <fct>     <int>   <dbl>    <int>     <dbl> <chr>       <int>
##  1 Afghanistan Asia       1952    28.8  8425333      779. AFG             4
##  2 Afghanistan Asia       1957    30.3  9240934      821. AFG             4
##  3 Afghanistan Asia       1962    32.0 10267083      853. AFG             4
##  4 Afghanistan Asia       1967    34.0 11537966      836. AFG             4
##  5 Afghanistan Asia       1972    36.1 13079460      740. AFG             4
##  6 Afghanistan Asia       1977    38.4 14880372      786. AFG             4
##  7 Afghanistan Asia       1982    39.9 12881816      978. AFG             4
##  8 Afghanistan Asia       1987    40.8 13867957      852. AFG             4
##  9 Afghanistan Asia       1992    41.7 16317921      649. AFG             4
## 10 Afghanistan Asia       1997    41.8 22227415      635. AFG             4
## # ... with 1,694 more rows
…
Find and open the General Social Survey data.

Find the average hours of tv watched (tvhours) for each category of marital status (marital).

# why doesn't this work?
#div <- filter(gss_cat, marital=="Divorced")
#div
#x = div[3]
#x <- as.numeric(x[[1]])
#mean(x)
# one method
(by_marital <- group_by(gss_cat, marital))

## # A tibble: 21,483 x 9
## # Groups:   marital [6]
##     year marital     age race  rincome   partyid    relig   denom   tvhours
##    <int> <fct>     <int> <fct> <fct>     <fct>      <fct>   <fct>     <int>
##  1  2000 Never ma~    26 White $8000 to~ Ind,near ~ Protes~ Southe~      12
##  2  2000 Divorced     48 White $8000 to~ Not str r~ Protes~ Baptis~      NA
##  3  2000 Widowed      67 White Not appl~ Independe~ Protes~ No den~       2
##  4  2000 Never ma~    39 White Not appl~ Ind,near ~ Orthod~ Not ap~       4
##  5  2000 Divorced     25 White Not appl~ Not str d~ None    Not ap~       1
##  6  2000 Married      25 White $20000 -~ Strong de~ Protes~ Southe~      NA
##  7  2000 Never ma~    36 White $25000 o~ Not str r~ Christ~ Not ap~       3
##  8  2000 Divorced     44 White $7000 to~ Ind,near ~ Protes~ Luther~      NA
##  9  2000 Married      44 White $25000 o~ Not str d~ Protes~ Other         0
## 10  2000 Married      47 White $25000 o~ Strong re~ Protes~ Southe~       3
## # ... with 21,473 more rows
…
